Carlos Trucíos: Utilizando o R para ler tabelas em PDF
…
class(tabelas)

[1] "list"

length(tabelas)

[1] 2

Se quisermos acessar a alguma das tabelas, basta fazer

library(dplyr)
library(purrr)
tabelas %>% pluck(1) %>% as_tibble()  # Primeira tabela

# A tibble: 35 x 11
       z  X0.00  X0.01  X0.02  X0.03  X0.04  X0.05  X0.06  X0.07
   <dbl>  <dbl>  <dbl>  <dbl>  <dbl>  <dbl>  <dbl>  <dbl>  <dbl>
 1  -3.4 0.0003 0.0003 0.0003 0.0003 0.0003 0.0003 0.0003 0.0003
 2  -3.3 0.0005 0.0005 0.0005 0.0004 0.0004 0.0004 0.0004 0.0004
 3  -3.2 0.0007 0.0007 0.0006 0.0006 0.0006 0.0006 0.0006 0.0005
 4  -3.1 0.001  0.0009 0.0009 0.0009 0.0008 0.0008 0.0008 0.0008
 5  -3   0.0013 0.0013 0.0013 0.0012 0.0012 0.0011 0.0011 0.0011
 6  -2.9 0.0019 0.0018 0.0018 0.0017 0.0016 0.0016 0.0015 0.0015
 7  -2.8 0.0026 0.0025 0.0024 0.0023 0.0023 0.0022 0.0021 0.0021
 8  -2.7 0.0035 0.0034 0.0033 0.0032 0.0031 0.003  0.0029 0.0028
 9  -2.6 0.0047 0.0045 0.0044 0.0043 0.0041 0.004  0.0039 0.0038
10  -2.5 0.0062 0.006  0.0059 0.0057 0.0055 0.0054 0.0052 0.0051
# … with 25 more rows, and 2 more variables: X0.08 <dbl>, X0.09 <dbl>

tabelas %>% pluck(2) %>% as_tibble()  # Segunda tabela

# A tibble: 35 x 11
       z X0.00 X0.01 X0.02 X0.03 X0.04 X0.05 X0.06 X0.07 X0.08 X0.09
   <dbl> <dbl> <dbl> <dbl> <dbl> <dbl> <dbl> <dbl> <dbl> <dbl> <dbl>
 1   0   0.5   0.504 0.508 0.512 0.516 0.520 0.524 0.528 0.532 0.536
 2   0.1 0.540 0.544 0.548 0.552 0.556 0.560 0.564 0.568 0.571 0.575
 3   0.2 0.579 0.583 0.587 0.591 0.595 0.599 0.603 0.606 0.610 0.614
 4   0.3 0.618 0.622 0.626 0.629 0.633 0.637 0.641 0.644 0.648 0.652
 5   0.4 0.655 0.659 0.663 0.666 0.67  0.674 0.677 0.681 0.684 0.688
 6   0.5 0.692 0.695 0.698 0.702 0.705 0.709 0.712 0.716 0.719 0.722
 7   0.6 0.726 0.729 0.732 0.736 0.739 0.742 0.745 0.749 0.752 0.755
 8   0.7 0.758 0.761 0.764 0.767 0.770 0.773 0.776 0.779 0.782 0.785
 9   0.8 0.788 0.791 0.794 0.797 0.800 0.802 0.805 0.808 0.811 0.813
10   0.9 0.816 0.819 0.821 0.824 0.826 0.829 0.832 0.834 0.836 0.839
# … with 25 more rows
…
